{
  "project_info": {
    "project_number": "746133086114",
    "project_id": "affiliateapp-de0a9",
    "storage_bucket": "affiliateapp-de0a9.appspot.com"
  },
  "client": [
    {
      "client_info": {
        "mobilesdk_app_id": "1:746133086114:android:9147b69a5c12dee8ad1cfb",
        "android_client_info": {
          "package_name": "app.affiliate.android"
        }
      },
      "oauth_client": [
        {
          "client_id": "746133086114-ln5lbdaie2rp6v1tr9i60ia8f48fl9tl.apps.googleusercontent.com",
          "client_type": 3
        }
      ],
      "api_key": [
        {
          "current_key": "AIzaSyBesxdHwxBZUjrtBDJw5bTZ--3LAx_6pAE"
        }
      ],
      "services": {
        "appinvite_service": {
          "other_platform_oauth_client": [
            {
              "client_id": "746133086114-ln5lbdaie2rp6v1tr9i60ia8f48fl9tl.apps.googleusercontent.com",
              "client_type": 3
            }
          ]
        }
      }
    }
  ],
  "configuration_version": "1"
}
